<?xml version="1.0" encoding="UTF-8" standalone="no"?>
<!DOCTYPE svg PUBLIC "-//W3C//DTD SVG 1.1//EN" "http://www.w3.org/Graphics/SVG/1.1/DTD/svg11.dtd">
<!-- Generiert durch Microsoft Visio, SVG Export Contact.svg Zeichenblatt-1 -->
<svg xmlns="http://www.w3.org/2000/svg" xmlns:xlink="http://www.w3.org/1999/xlink" xmlns:ev="http://www.w3.org/2001/xml-events"
		xmlns:v="http://schemas.microsoft.com/visio/2003/SVGExtensions/" width="1.41849in" height="0.870735in"
		viewBox="0 0 102.131 62.6929" xml:space="preserve" color-interpolation-filters="sRGB" class="st3">
	<v:documentProperties v:langID="1031" v:metric="true" v:viewMarkup="false"/>

	<style type="text/css">
	<![CDATA[
		.st1 {fill:none;stroke:#ffffff;stroke-linecap:round;stroke-linejoin:round;stroke-width:6}
		.st2 {stroke:#ffffff;stroke-linecap:round;stroke-linejoin:round;stroke-width:6}
		.st3 {fill:none;fill-rule:evenodd;font-size:12px;overflow:visible;stroke-linecap:square;stroke-miterlimit:3}
	]]>
	</style>

	<g v:mID="0" v:index="1" v:groupContext="foregroundPage">
		<title>Zeichenblatt-1</title>
		<v:pageProperties v:drawingScale="0.0393701" v:pageScale="0.0393701" v:drawingUnits="24" v:shadowOffsetX="8.50394"
				v:shadowOffsetY="-8.50394"/>
		<g id="group69-1" transform="translate(3,-3)" v:mID="69" v:groupContext="group">
			<title>Tabelle.69</title>
			<g id="shape65-2" v:mID="65" v:groupContext="shape" transform="translate(96.1311,68.6929) rotate(180)">
				<title>Rechteck.65</title>
				<v:userDefs>
					<v:ud v:nameU="visVersion" v:val="VT0(15):26"/>
				</v:userDefs>
				<rect x="0" y="6" width="96.1311" height="56.6929" class="st1"/>
			</g>
			<g id="shape63-4" v:mID="63" v:groupContext="shape" transform="translate(74.8163,76.5377) rotate(135)">
				<title>Tabelle.63</title>
				<path d="M0 62.69 L43.11 62.69" class="st2"/>
			</g>
			<g id="shape66-7" v:mID="66" v:groupContext="shape" transform="translate(96.1311,68.6929) rotate(180)">
				<title>Dreieck</title>
				<v:userDefs>
					<v:ud v:nameU="visVersion" v:val="VT0(15):26"/>
				</v:userDefs>
				<path d="M96.13 62.69 L48.07 25.84 L0 62.69 L96.13 62.69 Z" class="st1"/>
			</g>
			<g id="shape68-9" v:mID="68" v:groupContext="shape" transform="translate(21.3147,76.5377) rotate(45) scale(1,-1)">
				<title>Tabelle.68</title>
				<path d="M0 62.69 L43.11 62.69" class="st2"/>
			</g>
		</g>
	</g>
</svg>
